<?xml version="1.0" encoding="utf-8"?>
<!-- Generator: Adobe Illustrator 24.0.2, SVG Export Plug-In . SVG Version: 6.00 Build 0)  -->
<svg version="1.1" id="Capa_1" xmlns="http://www.w3.org/2000/svg" xmlns:xlink="http://www.w3.org/1999/xlink" x="0px" y="0px"
	 viewBox="0 0 86.7249 99.913" style="enable-background:new 0 0 86.7249 99.913;" xml:space="preserve">
<linearGradient id="SVGID_1_" gradientUnits="userSpaceOnUse" x1="84.9563" y1="-212.4778" x2="208.5751" y2="-226.8338" gradientTransform="matrix(1 0 0 -1 -96 -172.692)">
	<stop  offset="0" style="stop-color:#FF7607"/>
	<stop  offset="0.5293" style="stop-color:#FF2940"/>
	<stop  offset="0.8306" style="stop-color:#FF025D"/>
</linearGradient>
<path style="fill:url(#SVGID_1_);" d="M86.7249,79.5001c0,6.3258-6.0775,12.7079-12.0271,12.7079H12.0271
	C6.0775,92.208,0,85.8259,0,79.5001V12.7079C0,6.3822,6.0775,0,12.0271,0h62.6707c5.9496,0,12.0271,6.3822,12.0271,12.7079V79.5001
	L86.7249,79.5001z"/>
<g>
	<g id="m">
		<path style="fill:#FFFFFF;" d="M29.4571,13.0314c1.3366,0,2.6469,0.2182,3.9296,0.6407c1.2827,0.4226,2.4563,1.0909,3.5196,1.9786
			c2.1416-1.7466,4.6518-2.6193,7.5169-2.6193c1.5686,0,3.0833,0.2997,4.529,0.9003c1.4595,0.6006,2.7284,1.4194,3.8343,2.4563
			c1.0909,1.0369,1.9648,2.2645,2.6193,3.6976c0.6545,1.4332,0.9692,2.9604,0.9692,4.5703v16.8495
			c0,1.0783-0.4501,2.0187-1.3366,2.8237c-0.9003,0.805-1.9234,1.2137-3.0833,1.2137c-1.1598,0-2.183-0.4363-3.0557-1.3103
			c-0.8727-0.8727-1.3103-1.8958-1.3103-3.0557V24.8466c0-0.8464-0.2997-1.5686-0.9003-2.1416
			c-0.6006-0.5868-1.3504-0.8727-2.2507-0.8727c-0.7636,0-1.4733,0.2596-2.1153,0.7774c-0.6545,0.5179-0.9692,1.2689-0.9692,2.2507
			v7.9809c0,1.2137-0.4363,2.2369-1.3103,3.0833c-0.8727,0.8464-1.9096,1.2827-3.1246,1.2827c-1.1185,0-2.1278-0.3962-3.0155-1.1736
			c-0.9003-0.7774-1.3366-1.7328-1.3366-2.8513v-8.3219c-0.0414-0.9003-0.3824-1.6238-1.0094-2.183
			c-0.6269-0.5592-1.3228-0.8464-2.0877-0.8464c-0.8464,0-1.5824,0.2859-2.183,0.8727c-0.6006,0.5868-0.9279,1.3228-0.9692,2.2106
			v16.6589c-0.0953,1.0783-0.5454,2.0049-1.378,2.7836c-0.8326,0.7774-1.8281,1.1736-2.988,1.1736
			c-0.6282,0-1.2137-0.1091-1.7466-0.341c-0.5316-0.2182-1.0094-0.5316-1.4056-0.9416c-0.4088-0.4088-0.7235-0.8727-0.9692-1.4056
			c-0.2457-0.5329-0.341-1.0909-0.2997-1.6777V24.641c0-1.5686,0.3135-3.0557,0.9416-4.4613
			c0.6282-1.4056,1.4733-2.6469,2.5516-3.6976c1.0783-1.0507,2.3334-1.8958,3.7929-2.524
			C26.2509,13.3449,27.8057,13.0314,29.4571,13.0314z"/>
	</g>
	<g id="i">
		<path style="fill:#FFFFFF;" d="M57.0434,1.857c1.1836,0,2.2018,0.4464,3.0506,1.3379c0.8501,0.8915,1.2677,1.936,1.2677,3.1209
			c0,1.1836-0.4175,2.2294-1.2677,3.1209c-0.8501,0.8915-1.867,1.3379-3.0506,1.3379c-1.3241-0.0414-2.4099-0.474-3.26-1.2677
			c-0.8501-0.7937-1.2677-1.936-1.2677-3.3992c0.0414-1.1836,0.5153-2.1868,1.4068-3.0231
			C54.814,2.2469,55.8597,1.857,57.0434,1.857z M57.0434,12.664c1.1836,0,2.1868,0.4313,2.9817,1.309
			c0.7937,0.8639,1.2401,1.9222,1.3379,3.1485v24.2698c0,1.2401-0.3899,2.257-1.1699,3.0795
			c-0.7799,0.8225-1.8256,1.2815-3.1485,1.3655c-1.1836,0-2.1868-0.3624-3.0231-1.1009c-0.8225-0.7247-1.3241-1.7554-1.5046-3.0795
			V16.857c0.0978-1.1836,0.5718-2.173,1.4344-2.9541C54.8278,13.123,55.8597,12.7192,57.0434,12.664z"/>
		<path style="fill:#FF0C51;" d="M57.0572,46.1836L57.0572,46.1836c-1.2814,0-2.3686-0.4037-3.2463-1.1836
			s-1.4206-1.8946-1.6162-3.2876V41.671V16.8444v-0.0138c0.0978-1.2677,0.6131-2.341,1.546-3.176
			c0.9191-0.8225,2.0338-1.2677,3.3014-1.3241h0.0138c1.2815,0,2.3686,0.474,3.2325,1.4068
			c0.8501,0.9191,1.3241,2.0476,1.4206,3.3579v0.0276v24.2698c0,1.309-0.4175,2.4375-1.2539,3.3152
			C59.6063,45.5981,58.4778,46.0858,57.0572,46.1836L57.0572,46.1836z M52.8504,41.6421c0.1668,1.2263,0.6407,2.1867,1.393,2.8563
			c0.7661,0.6821,1.6714,1.0169,2.7861,1.0169c1.2401-0.084,2.2018-0.5016,2.9253-1.2677c0.7247-0.7661,1.0733-1.7002,1.0733-2.8563
			v-24.256c-0.084-1.1423-0.5016-2.1316-1.2539-2.9391c-0.7385-0.8075-1.63-1.1987-2.7309-1.1987
			c-1.1009,0.0414-2.0614,0.4313-2.8701,1.1423c-0.8075,0.7247-1.2401,1.6024-1.3241,2.7171
			C52.8504,16.857,52.8504,41.6421,52.8504,41.6421z M57.0434,11.108L57.0434,11.108c-1.4206-0.0414-2.578-0.5016-3.4832-1.3655
			s-1.3792-2.0902-1.3792-3.6362V6.0925c0.0414-1.2677,0.5567-2.3686,1.5184-3.2462c0.9479-0.8777,2.0764-1.3241,3.3441-1.3241
			c1.2815,0,2.3824,0.4878,3.2876,1.4344c0.9053,0.9479,1.3655,2.0764,1.3655,3.3441s-0.4602,2.3961-1.3655,3.3441
			C59.4257,10.6202,58.3248,11.108,57.0434,11.108z M52.8504,6.1063c0,1.3792,0.3762,2.4099,1.1699,3.1485
			c0.7799,0.7385,1.7968,1.1285,3.0369,1.1698c1.1009,0,2.02-0.4037,2.7999-1.2263c0.7937-0.8363,1.1698-1.783,1.1698-2.8839
			s-0.3899-2.0476-1.1698-2.8839c-0.7937-0.8363-1.7002-1.2263-2.8137-1.2263c-1.1134,0-2.0614,0.3762-2.8977,1.1423
			C53.3231,4.1001,52.8918,5.0054,52.8504,6.1063z"/>
	</g>
	<g id="g">
		<path style="fill:#FFFFFF;" d="M31.4231,87.1299h-2.1868c-1.1423,0.0978-2.1454,0.5718-3.0231,1.4344
			c-0.9191,0.8639-2.0062,1.309-3.2601,1.309c-1.2539,0-2.341-0.4602-3.26-1.3654c-0.8639-0.8225-1.3379-1.8106-1.4068-2.9817
			c-0.0702-1.1699,0.2784-2.1868,1.0583-3.0507c1.3654-1.7416,3.3854-2.9955,6.0323-3.7754
			c1.1836-0.3624,2.4663-0.5718,3.8456-0.6131h5.0706c0.6821-0.0978,1.2401-0.39,1.6438-0.8915
			c1.0031-1.5046,1.3517-2.8977,1.0307-4.1791v-0.0702c-0.9191,0.5016-1.951,0.9191-3.1209,1.2401
			c-1.1698,0.321-2.7033,0.4739-4.6255,0.4739c-2.4237,0-4.6531-0.4175-6.6869-1.2401s-3.7892-1.9648-5.2387-3.4268
			c-1.4633-1.4633-2.6055-3.2049-3.4268-5.2387c-0.8225-2.0338-1.2401-4.2631-1.2401-6.6869c0-2.2432,0.4602-4.3609,1.3655-6.3809
			c0.9191-2.0062,2.1316-3.7754,3.6638-5.28c1.5322-1.5046,3.2876-2.7033,5.28-3.5948c1.9924-0.8915,4.0826-1.3379,6.2693-1.3379
			c2.2845,0,4.4299,0.4313,6.4499,1.309c2.0062,0.8639,3.7754,2.0614,5.28,3.566c1.5046,1.5046,2.6883,3.2738,3.5246,5.28
			c0.8501,2.0062,1.2677,4.1653,1.2677,6.4499c0,3.1071-0.6683,5.8518-1.9924,8.2341c1.3241,1.783,1.9924,4.6807,1.9924,8.7068
			c0.0414,1.3241-0.237,2.7723-0.8639,4.3609c-0.6131,1.5749-1.4344,2.9115-2.4664,4.0124
			c-1.0307,1.1009-2.257,1.9786-3.6638,2.6331c-1.4206,0.6683-2.9541,1.0445-4.5979,1.1285h-2.3272h-0.3899v-0.0251L31.4231,87.1299
			L31.4231,87.1299z M29.2213,50.3916c-1.0031,0-1.9648,0.2232-2.8839,0.6545c-0.9191,0.4313-1.7278,1.0031-2.4375,1.714
			c-0.711,0.7109-1.2815,1.5184-1.714,2.4375s-0.6545,1.8808-0.6545,2.8839s0.1956,1.9786,0.5856,2.9115
			c0.3899,0.9329,0.9191,1.7554,1.6162,2.4663c0.6821,0.711,1.4909,1.2814,2.4375,1.714c0.9329,0.4313,1.951,0.6545,3.0506,0.6545
			c1.0996,0,2.1316-0.2094,3.0795-0.6131c0.9617-0.4175,1.783-0.9893,2.4664-1.714c0.6821-0.7247,1.2263-1.5598,1.6162-2.4663
			c0.3899-0.9191,0.5856-1.8946,0.5856-2.9541c0-1.0445-0.2232-2.0476-0.6545-2.9817c-0.4313-0.9341-1.0031-1.7416-1.714-2.4375
			c-0.7109-0.6821-1.5322-1.2401-2.4664-1.6438C31.1999,50.586,30.2244,50.3916,29.2213,50.3916z"/>
	</g>
	<g id="o">
		<path style="fill:#FFFFFF;" d="M57.1826,41.7951c2.2432,0,4.3609,0.4313,6.3809,1.309c2.0062,0.8639,3.7754,2.0614,5.28,3.566
			c1.5046,1.5046,2.7033,3.2738,3.5948,5.28c0.8915,2.0062,1.3379,4.1791,1.3379,6.5201c0,2.2845-0.4313,4.4161-1.309,6.4085
			c-0.8639,1.9924-2.0476,3.734-3.5246,5.2387c-1.4908,1.5046-3.2325,2.7033-5.2386,3.566c-2.0062,0.8639-4.1791,1.309-6.5201,1.309
			c-2.2845,0-4.4299-0.4175-6.4499-1.2401c-2.0062-0.8225-3.7754-1.9786-5.28-3.4694s-2.7033-3.2325-3.566-5.2386
			c-0.8639-2.0062-1.309-4.208-1.309-6.5753c0-2.2845,0.4175-4.4161,1.2677-6.4085c0.8501-1.9924,2.0062-3.7202,3.497-5.2111
			s3.2463-2.6745,5.28-3.566C52.6686,42.3669,54.8416,41.8791,57.1826,41.7951z M57.1826,50.7678
			c-1.0583,0-2.0338,0.1956-2.9541,0.5856c-0.9191,0.3899-1.7278,0.9191-2.4375,1.6162c-0.711,0.6821-1.2677,1.5046-1.6852,2.4375
			c-0.4175,0.9329-0.6131,1.951-0.6131,3.0506c0,1.0583,0.2094,2.0476,0.6131,2.9817c0.4175,0.9329,0.9755,1.7554,1.6852,2.4663
			c0.711,0.7109,1.5184,1.2677,2.4375,1.6852c0.9191,0.4175,1.8946,0.6131,2.9541,0.6131c1.0445,0,2.0476-0.2094,2.9817-0.6131
			c0.9329-0.4175,1.7416-0.9755,2.4375-1.6852c0.6821-0.7109,1.2401-1.5322,1.6438-2.4663c0.4175-0.9329,0.6131-1.936,0.6131-2.9817
			c-0.0978-2.104-0.8501-3.887-2.257-5.3502C61.1811,51.6455,59.3705,50.8643,57.1826,50.7678z"/>
		<path style="fill:#FF0657;" d="M57.1826,75.3147c-2.3121,0-4.5277-0.4175-6.5753-1.2539c-2.0476-0.8363-3.8594-2.02-5.3916-3.5384
			c-1.5322-1.5046-2.7585-3.3152-3.6362-5.3502c-0.8777-2.0476-1.3241-4.3045-1.3241-6.7157c0-2.3272,0.4313-4.5277,1.2952-6.5477
			c0.8639-2.02,2.0614-3.803,3.566-5.3214c1.5046-1.5046,3.3152-2.7309,5.3778-3.6362c2.0614-0.9053,4.3045-1.4068,6.6731-1.5046
			h0.0138c2.2707,0,4.4587,0.4464,6.5063,1.3241c2.0476,0.8777,3.8594,2.104,5.3778,3.6362
			c1.5322,1.5322,2.7585,3.3441,3.6638,5.3778c0.9053,2.0476,1.3654,4.2769,1.3654,6.6455c0,2.3121-0.4464,4.5277-1.3379,6.5477
			c-0.8777,2.02-2.0902,3.8168-3.5948,5.3502c-1.5046,1.5322-3.3152,2.7585-5.3502,3.6362
			C61.7805,74.8558,59.5511,75.3147,57.1826,75.3147z M57.1826,42.1299c-2.2845,0.0978-4.4437,0.5718-6.4223,1.4495
			c-1.9924,0.8639-3.734,2.0476-5.1822,3.497c-1.4495,1.4495-2.6055,3.1623-3.4268,5.0995
			c-0.8213,1.9372-1.2401,4.0538-1.2401,6.2831c0,2.3272,0.4313,4.4863,1.2815,6.4499c0.8501,1.9648,2.02,3.6914,3.497,5.1408
			c1.4771,1.4495,3.2049,2.5918,5.1684,3.3854c1.9648,0.8075,4.0826,1.2125,6.3245,1.2125c2.2707,0,4.4161-0.4313,6.3809-1.2815
			c1.9648-0.8501,3.6914-2.02,5.1408-3.497s2.6193-3.2049,3.4694-5.1408c0.8501-1.936,1.2677-4.0538,1.2677-6.2831
			c0-2.2707-0.4464-4.4161-1.309-6.3809c-0.8777-1.9648-2.0613-3.7064-3.5246-5.1822c-1.4771-1.4771-3.2187-2.6469-5.1684-3.497
			C61.4595,42.5474,59.3705,42.1299,57.1826,42.1299z M57.1826,66.5376c-1.1009,0-2.1316-0.2232-3.0795-0.6407
			c-0.9479-0.4313-1.7968-1.0169-2.5353-1.7554c-0.7385-0.7385-1.3241-1.6024-1.7554-2.578
			c-0.4313-0.9755-0.6407-2.02-0.6407-3.1209c0-1.1423,0.2232-2.2156,0.6407-3.1898c0.4313-0.9755,1.0169-1.8256,1.7554-2.5353
			c0.7385-0.7109,1.5886-1.2815,2.5353-1.6714c0.9479-0.4037,1.9924-0.6131,3.0795-0.6131h0.0138
			c2.2707,0.0978,4.1653,0.9191,5.6424,2.4375c1.4633,1.5184,2.257,3.3854,2.3547,5.5722v0.0138
			c0,1.1009-0.2232,2.1454-0.6407,3.1209c-0.4313,0.9755-1.0031,1.8394-1.714,2.5629c-0.711,0.7385-1.5598,1.3241-2.5353,1.7554
			C59.3141,66.3157,58.2696,66.5376,57.1826,66.5376z M57.1688,51.1013c-1.0031,0-1.936,0.1806-2.8137,0.5567
			c-0.8777,0.3762-1.6576,0.8915-2.3272,1.546c-0.6683,0.6545-1.2125,1.4344-1.6024,2.3272
			c-0.3899,0.8915-0.5856,1.867-0.5856,2.9115c0,1.0031,0.1956,1.9648,0.5856,2.8425c0.3899,0.8915,0.9329,1.6852,1.6162,2.3686
			c0.6683,0.6821,1.4633,1.2125,2.341,1.6162c0.8639,0.39,1.8106,0.5856,2.8137,0.5856c1.0031,0,1.9648-0.1956,2.8425-0.5856
			c0.8915-0.3899,1.6714-0.9329,2.3272-1.6024c0.6545-0.6821,1.1836-1.4771,1.5748-2.3686
			c0.3899-0.8915,0.5856-1.8394,0.5856-2.8425c-0.084-2.0062-0.8225-3.734-2.173-5.127
			C61.0144,51.9514,59.2589,51.1991,57.1688,51.1013z"/>
	</g>
</g>
<g id="seguros">
	<path style="fill:#FF0C51;" d="M45.3573,96.7633c0.1116,0.2232,0.2784,0.3762,0.4878,0.5016
		c0.2232,0.1116,0.4464,0.1668,0.6821,0.1668c0.1116,0,0.2232-0.0138,0.3348-0.0552c0.1116-0.0414,0.2094-0.084,0.2922-0.153
		c0.084-0.0702,0.153-0.1392,0.2094-0.237c0.0552-0.0978,0.084-0.1956,0.084-0.306c0-0.1806-0.0552-0.3348-0.1805-0.4175
		c-0.1254-0.0828-0.2646-0.1668-0.4464-0.2232c-0.1806-0.0552-0.3624-0.0978-0.5855-0.1392
		c-0.2232-0.0414-0.4037-0.0978-0.5856-0.1806c-0.1806-0.084-0.321-0.1956-0.4464-0.3348
		c-0.1254-0.1392-0.1806-0.3348-0.1806-0.5993c0-0.1956,0.0414-0.3762,0.1254-0.5154c0.084-0.1392,0.1956-0.2646,0.321-0.3624
		c0.1254-0.0978,0.2784-0.1668,0.4464-0.2094s0.3348-0.0702,0.5016-0.0702c0.3348,0,0.6269,0.0552,0.8639,0.1805
		c0.237,0.1254,0.4313,0.321,0.5718,0.5856l-0.474,0.2784c-0.0978-0.1806-0.2232-0.3348-0.3762-0.4313
		c-0.153-0.0966-0.3486-0.1392-0.5856-0.1392c-0.0978,0-0.1956,0.0138-0.2922,0.0414c-0.0978,0.0276-0.1956,0.0702-0.2784,0.1254
		c-0.084,0.0552-0.153,0.1254-0.2094,0.1956c-0.0552,0.084-0.084,0.1806-0.084,0.2784c0,0.1806,0.0552,0.321,0.1806,0.4037
		s0.2646,0.153,0.4464,0.2094c0.1806,0.0552,0.3624,0.0978,0.5855,0.1254c0.2094,0.0414,0.4037,0.0978,0.5856,0.1668
		c0.1806,0.084,0.321,0.1956,0.4464,0.3486c0.1254,0.153,0.1806,0.3624,0.1806,0.6407c0,0.2094-0.0414,0.3899-0.1116,0.5429
		c-0.084,0.153-0.1805,0.2922-0.321,0.39c-0.1392,0.1116-0.2922,0.1805-0.474,0.237c-0.1806,0.0552-0.3624,0.084-0.5567,0.084
		c-0.3486,0-0.6683-0.0702-0.9617-0.1956c-0.2922-0.1392-0.5153-0.3486-0.6683-0.6269L45.3573,96.7633z"/>
	<path style="fill:#FF0C51;" d="M52.6711,97.0279c-0.2094,0.306-0.4602,0.5291-0.7661,0.6683
		c-0.3059,0.1392-0.6269,0.1956-1.0031,0.1956c-0.3059,0-0.5856-0.0552-0.8501-0.153c-0.2508-0.1116-0.4739-0.2508-0.6545-0.4464
		c-0.1806-0.1956-0.321-0.4175-0.4175-0.6821c-0.0978-0.2646-0.1392-0.5429-0.1392-0.8639c0-0.306,0.0552-0.5855,0.153-0.8501
		c0.0978-0.2646,0.237-0.4878,0.4175-0.6683c0.1806-0.1956,0.3899-0.3348,0.6407-0.4464c0.2508-0.1116,0.5153-0.1668,0.8225-0.1668
		c0.3072,0,0.5855,0.0552,0.8225,0.1668c0.237,0.1116,0.4313,0.2508,0.5993,0.4313c0.1668,0.1806,0.2784,0.3762,0.3624,0.6131
		c0.084,0.2232,0.1254,0.4602,0.1254,0.6971v0.3624h-3.413c0,0.1116,0.0276,0.2508,0.0702,0.4313
		c0.0414,0.1668,0.1254,0.3348,0.237,0.5016s0.2784,0.3059,0.4739,0.4175c0.1956,0.1116,0.4464,0.1806,0.7661,0.1806
		c0.2646,0,0.5291-0.0702,0.7799-0.1956c0.2508-0.1254,0.4464-0.306,0.5856-0.5291L52.6711,97.0279z M52.2674,95.4254
		c0-0.1806-0.0414-0.3486-0.1116-0.5154c-0.0702-0.153-0.1668-0.2922-0.2922-0.4175c-0.1254-0.1254-0.2784-0.2094-0.4464-0.2922
		c-0.1668-0.0702-0.3624-0.1116-0.5429-0.1116c-0.2922,0-0.5291,0.0552-0.711,0.1806c-0.1956,0.1116-0.3348,0.2508-0.4464,0.4037
		c-0.1116,0.153-0.1956,0.306-0.237,0.4464c-0.0414,0.1392-0.0702,0.237-0.0702,0.2922h2.8563L52.2674,95.4254L52.2674,95.4254z"/>
	<path style="fill:#FF0C51;" d="M58.049,97.5294c0,0.5016-0.0702,0.9053-0.2232,1.2263c-0.153,0.306-0.3348,0.5567-0.5429,0.7247
		c-0.2232,0.1668-0.4602,0.2784-0.711,0.3486c-0.2508,0.0552-0.4739,0.084-0.6821,0.084c-0.2081,0-0.4037-0.0138-0.5993-0.0552
		c-0.1956-0.0414-0.3762-0.0978-0.5567-0.1668c-0.1806-0.0702-0.3348-0.1668-0.474-0.2646
		c-0.1392-0.1116-0.2646-0.2232-0.3762-0.3624l0.4175-0.3899c0.1806,0.2646,0.4175,0.4602,0.6972,0.5855
		c0.2784,0.1254,0.5856,0.1806,0.8915,0.1806c0.2646,0,0.5016-0.0414,0.6821-0.1116c0.1806-0.0702,0.3348-0.1668,0.4602-0.2784
		c0.1254-0.1116,0.2094-0.237,0.2784-0.3762c0.0702-0.1392,0.1116-0.2784,0.153-0.4175c0.0276-0.1392,0.0552-0.2646,0.0552-0.39
		c0-0.1254,0.0138-0.2232,0.0138-0.2922v-0.5567h-0.0138c-0.153,0.2508-0.3624,0.4464-0.6131,0.5856
		c-0.2646,0.1392-0.5718,0.2094-0.9191,0.2094c-0.2922,0-0.5856-0.0552-0.8501-0.1668s-0.4878-0.2646-0.6972-0.4464
		c-0.1956-0.1956-0.3486-0.4175-0.4602-0.6683c-0.1116-0.2508-0.1668-0.5153-0.1668-0.8075c0-0.2922,0.0552-0.5567,0.1668-0.8075
		c0.1116-0.2508,0.2646-0.474,0.4602-0.6545c0.1956-0.1806,0.4313-0.3348,0.6972-0.4464c0.2646-0.1116,0.5429-0.1668,0.8501-0.1668
		c0.3486,0,0.6545,0.0702,0.9191,0.2094c0.2646,0.1392,0.4739,0.3348,0.6131,0.5856h0.0138v-0.6821h0.5291v3.7754H58.049
		C58.049,97.5369,58.049,97.5294,58.049,97.5294z M57.5336,95.7176c0-0.2232-0.0414-0.4313-0.1254-0.6269
		c-0.084-0.1956-0.1956-0.3624-0.3486-0.5154c-0.1392-0.1392-0.321-0.2508-0.5153-0.3486c-0.1956-0.084-0.4037-0.1254-0.6269-0.1254
		c-0.2232,0-0.4313,0.0414-0.6269,0.1254c-0.1956,0.084-0.3624,0.1956-0.5153,0.3486c-0.1392,0.1392-0.2646,0.321-0.3486,0.5154
		c-0.084,0.1956-0.1254,0.4037-0.1254,0.6269s0.0414,0.4313,0.1254,0.6269c0.084,0.1956,0.1956,0.3624,0.3486,0.5153
		c0.1392,0.1392,0.3059,0.2646,0.5153,0.3486c0.1956,0.084,0.4037,0.1254,0.6269,0.1254c0.2232,0,0.4313-0.0414,0.6269-0.1254
		c0.1956-0.084,0.3624-0.1956,0.5153-0.3486c0.1392-0.1392,0.2646-0.306,0.3486-0.5153
		C57.491,96.1502,57.5336,95.9408,57.5336,95.7176z"/>
	<path style="fill:#FF0C51;" d="M62.771,96.6517c0,0.0702,0,0.1668,0.0138,0.2784c0,0.1116,0.0138,0.2232,0.0138,0.3348
		c0,0.1116,0.0138,0.2094,0.0138,0.306c0,0.0978,0.0138,0.1668,0.0138,0.2232h-0.5291c0-0.153-0.0138-0.2922-0.0138-0.4464
		c0-0.1392-0.0138-0.237-0.0276-0.2784h-0.0276c-0.1116,0.2232-0.2784,0.4175-0.5291,0.5718
		c-0.2508,0.1668-0.5291,0.237-0.8639,0.237c-0.321,0-0.5718-0.0552-0.7799-0.153c-0.2094-0.0978-0.3624-0.237-0.4739-0.3899
		c-0.1116-0.1668-0.1956-0.3486-0.237-0.5567c-0.0414-0.2094-0.0552-0.4313-0.0552-0.6545v-2.4099h0.5291v2.3961
		c0,0.1668,0.0138,0.321,0.0414,0.4739c0.0276,0.153,0.084,0.2922,0.153,0.4175c0.0702,0.1254,0.1806,0.2232,0.306,0.2922
		c0.1254,0.0702,0.3059,0.1116,0.5153,0.1116c0.1956,0,0.3762-0.0276,0.5429-0.0978c0.1668-0.0702,0.321-0.1668,0.4464-0.306
		c0.1254-0.1392,0.2232-0.3059,0.2922-0.5153c0.0702-0.2094,0.1116-0.4464,0.1116-0.7385v-2.0338h0.5291v2.9391h0.0151
		L62.771,96.6517L62.771,96.6517z"/>
	<path style="fill:#FF0C51;" d="M64.2205,94.8825c0-0.0702,0-0.1668-0.0138-0.2784c0-0.1116-0.0138-0.2232-0.0138-0.3348
		c0-0.1116-0.0138-0.2094-0.0138-0.306c0-0.0978-0.0138-0.1668-0.0138-0.2232h0.5291c0,0.153,0.0138,0.2922,0.0138,0.4464
		c0,0.1392,0.0138,0.237,0.0276,0.2784c0.1392-0.237,0.3059-0.4313,0.5153-0.5855c0.2094-0.153,0.474-0.2232,0.7799-0.2232
		c0.0552,0,0.0978,0,0.153,0.0138c0.0552,0.0138,0.0978,0.0138,0.153,0.0276l-0.0552,0.5153
		c-0.0702-0.0276-0.1392-0.0414-0.1956-0.0414c-0.2232,0-0.4313,0.0414-0.5993,0.1116s-0.3059,0.1805-0.4175,0.3059
		c-0.1116,0.1254-0.1956,0.2784-0.237,0.4464c-0.0552,0.1668-0.084,0.3624-0.084,0.5567v2.2156h-0.5291L64.2205,94.8825
		L64.2205,94.8825z"/>
	<path style="fill:#FF0C51;" d="M66.7558,95.7602c0-0.3059,0.0552-0.5993,0.153-0.8501c0.1116-0.2646,0.2508-0.4877,0.4464-0.6821
		c0.1806-0.1956,0.4175-0.3348,0.6821-0.4464c0.2646-0.1116,0.5429-0.153,0.8639-0.153c0.306,0,0.5993,0.0552,0.8501,0.153
		c0.2646,0.1116,0.4878,0.2508,0.6821,0.4464c0.1956,0.1956,0.3348,0.4175,0.4464,0.6821c0.1116,0.2646,0.153,0.5429,0.153,0.8501
		c0,0.306-0.0552,0.5993-0.153,0.8639c-0.1116,0.2646-0.2508,0.4877-0.4464,0.6821c-0.1956,0.1956-0.4175,0.3348-0.6821,0.4464
		c-0.2646,0.1116-0.5429,0.153-0.8501,0.153c-0.3072,0-0.5993-0.0552-0.8639-0.153c-0.2646-0.1116-0.4877-0.2507-0.6821-0.4464
		c-0.1805-0.1956-0.3348-0.4175-0.4464-0.6821C66.8122,96.3583,66.7558,96.08,66.7558,95.7602z M67.2849,95.7602
		c0,0.2232,0.0414,0.4464,0.1116,0.6407c0.0702,0.1956,0.1805,0.3762,0.321,0.5291c0.1392,0.153,0.3059,0.2646,0.5153,0.3624
		c0.1956,0.084,0.4175,0.1254,0.6683,0.1254c0.2508,0,0.474-0.0414,0.6683-0.1254c0.1944-0.084,0.3624-0.2094,0.5153-0.3624
		c0.1392-0.153,0.2508-0.321,0.321-0.5291c0.0702-0.2094,0.1116-0.4175,0.1116-0.6407s-0.0414-0.4464-0.1116-0.6407
		c-0.0702-0.1956-0.1806-0.3762-0.321-0.5291c-0.1392-0.153-0.3059-0.2646-0.5153-0.3624c-0.1956-0.084-0.4175-0.1254-0.6683-0.1254
		c-0.2508,0-0.474,0.0414-0.6683,0.1254c-0.1956,0.084-0.3624,0.2094-0.5153,0.3624c-0.153,0.153-0.2508,0.321-0.321,0.5291
		C67.3276,95.3277,67.2849,95.537,67.2849,95.7602z"/>
	<path style="fill:#FF0C51;" d="M72.2176,96.7633c0.1116,0.2232,0.2784,0.3762,0.4878,0.5016
		c0.2232,0.1116,0.4464,0.1668,0.6821,0.1668c0.1116,0,0.2232-0.0138,0.3348-0.0552c0.1116-0.0414,0.2094-0.084,0.2922-0.153
		c0.084-0.0702,0.153-0.1392,0.2094-0.237c0.0552-0.0978,0.084-0.1956,0.084-0.306c0-0.1806-0.0552-0.3348-0.1806-0.4175
		c-0.1254-0.084-0.2646-0.1668-0.4464-0.2232c-0.1805-0.0552-0.3624-0.0978-0.5855-0.1392
		c-0.2094-0.0414-0.4037-0.0978-0.5855-0.1806c-0.1806-0.084-0.321-0.1956-0.4464-0.3348
		c-0.1254-0.1392-0.1806-0.3348-0.1806-0.5993c0-0.1956,0.0414-0.3762,0.1254-0.5154c0.084-0.153,0.1956-0.2646,0.321-0.3624
		c0.1254-0.0978,0.2784-0.1668,0.4464-0.2094c0.168-0.0426,0.3348-0.0702,0.5016-0.0702c0.3348,0,0.6269,0.0552,0.8639,0.1805
		c0.237,0.1254,0.4313,0.321,0.5718,0.5856l-0.474,0.2784c-0.0978-0.1806-0.2232-0.3348-0.3762-0.4313
		c-0.153-0.0966-0.3486-0.1392-0.5856-0.1392c-0.0978,0-0.1956,0.0138-0.2922,0.0414c-0.0978,0.0276-0.1956,0.0702-0.2784,0.1254
		c-0.0828,0.0552-0.153,0.1254-0.2094,0.1956c-0.0552,0.084-0.084,0.1806-0.084,0.2784c0,0.1806,0.0552,0.321,0.1806,0.4037
		c0.1254,0.084,0.2646,0.153,0.4464,0.2094c0.1806,0.0552,0.3624,0.0978,0.5856,0.1254c0.2094,0.0414,0.4037,0.0978,0.5856,0.1668
		c0.1805,0.084,0.321,0.1956,0.4464,0.3486c0.1254,0.153,0.1806,0.3624,0.1806,0.6407c0,0.2094-0.0414,0.3899-0.1116,0.5429
		c-0.084,0.153-0.1806,0.2922-0.321,0.39c-0.1392,0.1116-0.2922,0.1805-0.474,0.237c-0.1805,0.0552-0.3624,0.084-0.5567,0.084
		c-0.3486,0-0.6683-0.0702-0.9617-0.1956c-0.2922-0.1392-0.5153-0.3486-0.6683-0.6269L72.2176,96.7633z"/>
</g>
</svg>
