<?xml version="1.0" encoding="utf-8"?>
<!-- Generator: Adobe Illustrator 24.0.2, SVG Export Plug-In . SVG Version: 6.00 Build 0)  -->
<svg version="1.1" id="Capa_1" xmlns="http://www.w3.org/2000/svg" xmlns:xlink="http://www.w3.org/1999/xlink" x="0px" y="0px"
	 viewBox="0 0 17 17" style="enable-background:new 0 0 17 17;" xml:space="preserve">
<style type="text/css">
	.st0{fill:#FF005F;}
</style>
<path class="st0" d="M14.2109,6.707c0-0.2066-0.0664-0.3763-0.1992-0.5091l-1.0072-0.9961
	c-0.1402-0.1402-0.3062-0.2103-0.498-0.2103c-0.1918,0-0.3579,0.0701-0.498,0.2103L7.4928,9.7064L4.9915,7.2051
	c-0.1402-0.1402-0.3062-0.2103-0.498-0.2103c-0.1918,0-0.3579,0.0701-0.498,0.2103L2.9883,8.2012
	C2.8555,8.334,2.7891,8.5037,2.7891,8.7103c0,0.1992,0.0664,0.3652,0.1992,0.498l4.0065,4.0065
	c0.1402,0.1402,0.3062,0.2103,0.498,0.2103c0.1992,0,0.3689-0.0701,0.5091-0.2103l6.0098-6.0098
	C14.1445,7.0723,14.2109,6.9063,14.2109,6.707z M17,8.5c0,1.5421-0.38,2.9643-1.14,4.2666S14.0689,15.1,12.7666,15.86
	S10.0421,17,8.5,17s-2.9643-0.38-4.2666-1.14S1.9,14.0689,1.14,12.7666S0,10.0421,0,8.5s0.38-2.9643,1.14-4.2666
	S2.9311,1.9,4.2334,1.14S6.9579,0,8.5,0s2.9643,0.38,4.2666,1.14S15.1,2.9311,15.86,4.2334S17,6.9579,17,8.5z"/>
</svg>
