<?xml version="1.0" encoding="utf-8"?>
<!-- Generator: Adobe Illustrator 23.0.2, SVG Export Plug-In . SVG Version: 6.00 Build 0)  -->
<svg version="1.1" id="Object" xmlns="http://www.w3.org/2000/svg" xmlns:xlink="http://www.w3.org/1999/xlink" x="0px" y="0px"
	 viewBox="0 0 1708.1 700" style="enable-background:new 0 0 1708.1 700;" xml:space="preserve">
<style type="text/css">
	.st0{fill:#f2f2f2;}
</style>
<polygon class="st0" points="1657.2,203.3 1657.2,348.8 1638.4,348.8 1638.4,290.9 1611.8,268.4 1611.8,180.8 1578.2,180.8 
	1558.6,164.2 1533.6,164.2 1533.6,252.4 1473.3,252.4 1473.3,352.6 1457.7,352.6 1457.7,212.6 1413.9,231.9 1413.9,315.5 
	1402.1,315.5 1402.1,186.7 1387.3,186.7 1387.3,148.9 1372.4,148.9 1372.4,140.3 1366.1,140.3 1366.1,147.6 1329.4,147.6 
	1329.4,176.8 1294.9,176.8 1286.3,186.7 1286.3,306.2 1257,306.2 1257,282 1238.6,266.4 1238.6,209.3 1174.5,209.3 1174.5,256.4 
	1151,256.4 1151,296.2 1122.8,322.8 1104.8,322.8 1104.8,196.7 1054.8,167.5 1054.8,284.3 1043,284.3 1043,204 983.6,204 
	983.6,231.9 956.2,231.9 956.2,365.2 944.4,365.2 944.4,307.5 904.5,307.5 904.5,289.6 897.5,281 858.2,281 858.2,203.3 
	807.3,203.3 807.3,348.8 788.5,348.8 788.5,290.9 761.9,268.4 761.9,180.8 728.2,180.8 708.7,164.2 683.6,164.2 683.6,252.4 
	623.4,252.4 623.4,352.6 607.8,352.6 607.8,212.6 563.9,231.9 563.9,315.5 552.2,315.5 552.2,186.7 537.3,186.7 537.3,148.9 
	522.5,148.9 522.5,140.3 516.2,140.3 516.2,147.6 479.4,147.6 479.4,176.8 445,176.8 436.4,186.7 436.4,306.2 407.1,306.2 
	407.1,282 388.7,266.4 388.7,209.3 324.5,209.3 324.5,256.4 301.1,256.4 301.1,296.2 272.9,322.8 254.9,322.8 254.9,196.7 
	204.8,167.5 204.8,284.3 193.1,284.3 193.1,204 133.6,204 133.6,231.9 106.2,231.9 106.2,365.2 94.5,365.2 94.5,307.5 54.6,307.5 
	54.6,289.6 47.6,281 4.5,281 4.5,438.3 731.7,438.3 776.2,438.3 795,438.3 839.1,438.3 845.9,438.3 1581.7,438.3 1626.2,438.3 
	1644.9,438.3 1708.1,438.3 1708.1,203.3 "/>
</svg>
